763774 255069 509
495435 449491 444
651592 788723 504
93859 28347 351
835765 432767 509
762280 2106 509
445387 721540 509
228762 945270 525
901427 30589 525
25445 541412 470
939149 381204 525
216599 422116 449
29040 221691 386
437887 495812 444
233084 230866 350
218781 459603 449
289781 21489 443
837577 556454 509
642294 185906 509
992543 859946 507
120889 332695 443
721484 711191 411
936440 422106 525
830035 670305 504
303368 587580 470
882479 846197 432
505283 589002 470
34525 242739 443
797404 414313 509
173007 548798 470
703040 674485 442
374703 438961 449
508426 778442 509
520938 393255 470
489693 29574 449
43487 703382 509
983187 593183 525
393599 170349 443
502238 982076 525
770523 539617 509
860289 232176 525
513771 952467 525
577794 459131 470
269279 547996 470
957116 5709 525
783655 820485 468
886179 740503 525
809139 518678 509
561357 426090 470
56123 870010 525
569999 199839 470
504720 484925 426
356789 346077 379
538478 623489 452
612452 458146 470
27974 229605 386
177211 584460 470
861008 798438 525
797097 816437 406
255294 841744 525
673113 83234 509
16690 14559 271
755586 249559 509
109488 624802 470
344422 69515 443
159625 527380 470
168144 272914 443
711589 454701 509
322001 473771 449
23634 386557 443
420918 188039 449
108761 899818 525
510115 209090 449
605648 817039 509
20818 17864 274
146461 718835 509
160227 704605 509
678175 544702 509
220599 975594 525
797810 516599 509
223195 648506 509
394898 575845 470
321245 630947 509
58785 298605 443
967903 875534 507
306386 858514 525
310363 939288 525
743842 416172 509
252358 8480 443
878717 37916 525
819414 962201 525
570280 171517 470
867781 973775 507
704023 508873 509
377968 346930 423
205761 674153 509
432950 194118 449
104424 665957 509
296072 499799 449
325345 871621 525
899678 18092 525
200853 327740 443
987049 782700 525
339095 213029 443
674455 837701 504
932187 343849 525
882393 687110 525
484498 985508 525
234640 725465 509
84680 169694 383
910987 212968 525
759116 600208 509
841132 368107 525
340285 291215 384
867419 603982 525
954307 887265 507
135345 551170 470
104274 39137 351
73193 866168 525
788116 828505 468
340897 615186 470
781903 378039 509
570781 223714 470
81743 266723 443
890768 564446 525
925067 457769 525
277182 787014 509
827768 12381 509
670411 91683 509
115102 885060 525
40023 239633 443
988158 421013 525
115558 167383 383
241420 744006 509
102834 910764 525
378277 970264 525
909222 294023 525
253410 477010 449
100129 652050 509
39620 10506 324
982583 295549 525
596570 449844 470
313280 62964 443
913392 969813 507
969796 111362 525
215193 617806 470
979952 542913 525
688189 661834 442
259085 541602 470
307321 246381 407
81368 280786 443
983376 447902 525
652010 643466 385
940734 390478 525
306784 327241 384
316735 847134 525
893500 302809 525
334333 544225 470
578985 595962 434
245098 20374 443
243759 72327 443
551204 70916 470
75129 635382 509
290821 792184 509
493261 862648 525
154179 501429 449
794983 77106 509
949227 173242 525
776208 984895 525
821550 319784 509
106877 514358 470
919356 293489 525
893758 141680 525
910481 31759 525
316068 903088 525
803856 907153 525
840718 746184 525
689595 178154 509
432638 157896 449
714824 667778 504
252586 64414 443
963385 808252 525
549269 541377 452
851292 453309 525
395710 338669 441
257969 24408 443
646438 416683 509
570603 62321 470
354943 138284 443
125129 259112 443
828934 397797 509
401082 612444 470
233529 7477 443
528701 500899 470
648839 438316 509
686513 731421 504
238374 495072 449
478826 225062 449
412246 560407 470
906939 917706 476
275225 646415 509
48197 71551 340
511691 877424 525
159467 766027 509
883009 311802 525
692556 848991 525
371614 701282 509
736418 594577 509
856277 896604 445
960078 571232 525
176275 250595 443
217618 569517 470
757750 52133 509
681636 717153 504
347981 515055 470
164798 729896 509
40708 981221 525
807943 628448 504
267526 912862 525
959438 139126 525
775757 841930 525
659717 700407 442
445058 924307 525
971207 382353 525
802711 432921 509
164754 325467 443
126330 908884 525
959424 119186 525
600679 408224 470
118090 295475 443
248216 749576 509
4008 189838 383
438773 21034 449
627526 605627 509
835332 206605 509
284781 542339 470
273225 585738 470
250882 683527 509
791090 808654 468
973616 545377 525
490809 855697 525
769067 570544 509
383256 284047 441
108139 807549 509
118071 747265 509
545287 964945 525
761065 973519 525
136594 500371 449
572578 311251 470
